{
  "project_info": {
    "project_number": "304654548183",
    "firebase_url": "https://proiectandroid-94d1a.firebaseio.com",
    "project_id": "proiectandroid-94d1a",
    "storage_bucket": "proiectandroid-94d1a.appspot.com"
  },
  "client": [
    {
      "client_info": {
        "mobilesdk_app_id": "1:304654548183:android:c5807effa98e0e7e",
        "android_client_info": {
          "package_name": "com.example.alexandrusandu.proiectandroid"
        }
      },
      "oauth_client": [
        {
          "client_id": "304654548183-9mndqt9u81d5oeenfk3nqkctub5b0u58.apps.googleusercontent.com",
          "client_type": 1,
          "android_info": {
            "package_name": "com.example.alexandrusandu.proiectandroid",
            "certificate_hash": "1cd194001fd0b00fa425af207d702282b1610f48"
          }
        },
        {
          "client_id": "304654548183-vfdguenkmstpe5dko6asq1rsva6suvks.apps.googleusercontent.com",
          "client_type": 3
        }
      ],
      "api_key": [
        {
          "current_key": "AIzaSyAndrV3AM7ykmO8BT6y9Ib7ixoBoiSoVJM"
        }
      ],
      "services": {
        "analytics_service": {
          "status": 1
        },
        "appinvite_service": {
          "status": 2,
          "other_platform_oauth_client": [
            {
              "client_id": "304654548183-vfdguenkmstpe5dko6asq1rsva6suvks.apps.googleusercontent.com",
              "client_type": 3
            }
          ]
        },
        "ads_service": {
          "status": 2
        }
      }
    }
  ],
  "configuration_version": "1"
}